…
## Usuários com mais mensagens (de texto)

``` r
banco %>%
  count(nome, sort = T) %>%
  filter(nome != "Deleted Account")
```

    ## # A tibble: 714 x 2
    ##    nome                      n
    ##    <chr>                 <int>
    ##  1 Marcelo Ventura        3903
    ##  2 Charles Lula da Silva  2772
    ##  3 Leonard de Assis       1684
    ##  4 Sillas                 1669
    ##  5 Julio Trecenti         1343
    ##  6 Fernando Barbalho      1092
    ##  7 Bruna Wundervald        978
    ##  8 Andre Mesquita          843
    ##  9 Rodolfo Silva           763
    ## 10 George Santiago         671
    ## # ... with 704 more rows

## Usuários que mais falaram sobre o pacote `shiny`

``` r
banco %>%
  tidytext::unnest_tokens(word, texto) %>%
  anti_join(banco_palavras, by = "word") %>%
  filter(word == "shiny",
         nome != "Deleted Account") %>%
  count(nome, sort = T)
```

    ## # A tibble: 75 x 2
    ##    nome                           n
    ##    <chr>                      <int>
    ##  1 Henrique Faria de Oliveira    53
    ##  2 Charles Lula da Silva         40
    ##  3 Sillas                        29
    ##  4 José de Jesus Filho           24
    ##  5 Fernando Barbalho             22
    ##  6 Julio Trecenti                16
    ##  7 Vinicius Bodart               14
    ##  8 Gerson Neto                   11
    ##  9 Rubem Dornas                  10
    ## 10 Rodolfo Silva                  9
    ## # ... with 65 more rows
…
